resources: {
    mixer: 'https://i.imgur.com/Cn43EPV.png',
    sieve: 'https://i.imgur.com/OiixahN.png',
    scale: 'https://i.imgur.com/xKs9u7V.png',
    cover: 'https://i.imgur.com/2hp9Zg4.png',
    bolt: 'https://i.imgur.com/0ytrZgu.png',
    container: 'https://i.imgur.com/Zy5sek4.png',
    table: 'https://i.imgur.com/pMGKFoF.png',
    grainsGravel: "https://i.imgur.com/AwocEo6.png",
    gravel1: "https://i.imgur.com/lmr3fPc.png",
    gravel2: "https://i.imgur.com/HVvSTjY.png",
    gravel3: "https://i.imgur.com/vHVeKZ0.png",
    sieveBackground: 'https://i.imgur.com/F3UvHjD.png',
    sieve1: "https://i.imgur.com/OiixahN.png",
    sieve2: "https://i.imgur.com/F7cP8lU.png",
    sieve3: "https://i.imgur.com/lku7kCc.png",
    sieve4: "https://i.imgur.com/6iNT0pY.png",
    sieve5: "https://i.imgur.com/JVhBiqF.png",
    sieve6: "https://i.imgur.com/uuwFIx4.png",
    sieve7: "https://i.imgur.com/PxyCSBt.png",
    sieve8: "https://i.imgur.com/nHLp3C8.png",
    sieve9: "https://i.imgur.com/Kp8Llug.png",
    sieve10: "https://i.imgur.com/XwNGr33.png",
    sieve11: "https://i.imgur.com/YBNNmBL.png",
    sieve12: "https://i.imgur.com/lqXENa0.png",
    sieve13: "https://i.imgur.com/5kXywMh.png",
    sieve14: "https://i.imgur.com/kOVuAre.png",
    sieve15: "https://i.imgur.com/IseVf4O.png",
    sieve16: "https://i.imgur.com/3Ft5JqO.png",
    card: "https://i.imgur.com/krnxon4.png",
    personagem:"",
    logo: ""
}